{
  "photos": {
    "page": 1,
    "pages": 7714,
    "perpage": 100,
    "total": "771325",
    "photo": [
      {
        "id": "17506017649",
        "owner": "125038811@N04",
        "secret": "6fc5c92249",
        "server": "8786",
        "farm": 9,
        "title": "I Carry Your Heart d",
        "ispublic": 1,
        "isfriend": 0,
        "isfamily": 0,
        "url_s": "image1.jpg",
        "url_l": "image1.jpg",
        "height_s": "236",
        "width_s": "236"
      },
      {
        "id": "17069483034",
        "owner": "125421155@N06",
        "secret": "b929f3628b",
        "server": "7676",
        "farm": 8,
        "title": "#new #shoutout #kitten #cute #tiny #followme #follow #like #zoo #amazing #boy #girl #picture #funny #awesome #xoxo #love #love4love #edit #illusion #high #gangster #game #pet #small #puppy #dog #meteor #planet #swag",
        "ispublic": 1,
        "isfriend": 0,
        "isfamily": 0,
        "url_s": "image2.jpg",
        "url_l": "image2.jpg",        
        "height_s": "240",
        "width_s": "240"
      },
      {
        "id": "17691888511",
        "owner": "99117316@N03",
        "secret": "4617e1ae6b",
        "server": "8714",
        "farm": 9,
        "title": "Love your dog and he will do the same for...",
        "ispublic": 1,
        "isfriend": 0,
        "isfamily": 0,
        "url_s": "image3.jpg",
        "url_l": "image3.jpg",
        "height_s": "240",
        "width_s": "198"
      },
      {
        "id": "17503868590",
        "owner": "107210447@N03",
        "secret": "3ccba53785",
        "server": "7680",
        "farm": 8,
        "title": "Cute Cartoons Animals",
        "ispublic": 1,
        "isfriend": 0,
        "isfamily": 0,
        "url_s": "image4.jpg",
        "url_l": "image4.jpg",
        "height_l": "911",
        "width_l": "1023"
      },
      {
        "id": "17690761265",
        "owner": "42832629@N07",
        "secret": "6b9f8e09a9",
        "server": "5338",
        "farm": 6,
        "title": "Lovely boy 😃😃.                 #dog #dog #puppy #pup #cute #eyes #instagood #dogs_of_instagram #pet #pets #animal #animals #petstagram #petsagram #dogsitting #photooftheday #dogsofinstagram #ilovemydog #instagramdogs #nature #dogstagram #dog",
        "ispublic": 1,
        "isfriend": 0,
        "isfamily": 0,
        "url_s": "image5.jpg",
        "url_l": "image5.jpg",
        "height_s": "240",
        "width_s": "240"
      },
      {
        "id": "17502637168",
        "owner": "127562667@N06",
        "secret": "f45d637461",
        "server": "5467",
        "farm": 6,
        "title": "They understand each other",
        "ispublic": 1,
        "isfriend": 0,
        "isfamily": 0,
        "url_s": "image6.jpg",
        "url_l": "image6.jpg",
        "height_l": "683",
        "width_l": "1024"
      },
      {
        "id": "17664136566",
        "owner": "127562667@N06",
        "secret": "a9f13be12e",
        "server": "5459",
        "farm": 6,
        "title": "A Spark of Hope right before Dinner",
        "ispublic": 1,
        "isfriend": 0,
        "isfamily": 0,
        "url_s": "image7.jpg",
        "url_l": "image7.jpg",
        "height_l": "670",
        "width_l": "1024"
      },
      {
        "id": "17687487712",
        "owner": "44619939@N02",
        "secret": "f72df6c81c",
        "server": "7745",
        "farm": 8,
        "title": "Sally has gone rogue and get herself a blog! Check it out: iamsally.co.uk ❤️🐶 #bloggingdog #iamsally #dog #cute #love",
        "ispublic": 1,
        "isfriend": 0,
        "isfamily": 0,
        "url_s": "image8.jpg",
        "url_l": "image8.jpg",
        "height_s": "240",
        "width_s": "240"
      },
      {
        "id": "17502392140",
        "owner": "44619939@N02",
        "secret": "e784635812",
        "server": "8876",
        "farm": 9,
        "title": "No room at the inn. #dog #cute #instagood #dogs_of_instagram #pet #pets #animal #animals #petstagram #petsagram #photooftheday #dogsofinstagram #ilovemydog #instagramdogs #dogstagram #dogoftheday #lovedogs #hound #adorable #doglover #instadog",
        "ispublic": 1,
        "isfriend": 0,
        "isfamily": 0,
        "url_s": "image9.jpg",
        "url_l": "image9.jpg",
        "height_s": "240",
        "width_s": "240"
      },
      {
        "id": "17689913185",
        "owner": "26980045@N02",
        "secret": "f7b19130e9",
        "server": "8812",
        "farm": 9,
        "title": "#Dogsitting this #handsome fella #today 🐶💗😎✌️Say hello to #Lucky 🙋 #dog #dogsofinstagram #flickr #cute",
        "ispublic": 1,
        "isfriend": 0,
        "isfamily": 0,
        "url_s": "image10.jpg",
        "url_l": "image10.jpg",
        "height_s": "240",
        "width_s": "240"
      }
    ]
  },
  "stat": "ok"
}